{
  "page": 1,
  "per_page": 10,
  "total": 23,
  "total_pages": 3,
  "data": [
    {
      "competition": "UEFA Champions League",
      "year": 2014,
      "round": "GroupG",
      "team1": "Sporting CP",
      "team2": "Chelsea",
      "team1goals": "0",
      "team2goals": "1"
    },
    {
      "competition": "UEFA Champions League",
      "year": 2014,
      "round": "GroupG",
      "team1": "NK Maribor",
      "team2": "Chelsea",
      "team1goals": "1",
      "team2goals": "1"
    },
    {
      "competition": "UEFA Champions League",
      "year": 2014,
      "round": "GroupG",
      "team1": "Schalke 04",
      "team2": "Chelsea",
      "team1goals": "0",
      "team2goals": "5"
    },
    {
      "competition": "UEFA Champions League",
      "year": 2014,
      "round": "R16",
      "team1": "Paris Saint-Germain",
      "team2": "Chelsea",
      "team1goals": "1",
      "team2goals": "1"
    },
    {
      "competition": "English Premier League",
      "year": 2014,
      "round": "",
      "team1": "Burnley",
      "team2": "Chelsea",
      "team1goals": "1",
      "team2goals": "3"
    },
    {
      "competition": "English Premier League",
      "year": 2014,
      "round": "",
      "team1": "Everton",
      "team2": "Chelsea",
      "team1goals": "3",
      "team2goals": "6"
    },
    {
      "competition": "English Premier League",
      "year": 2014,
      "round": "",
      "team1": "Manchester City",
      "team2": "Chelsea",
      "team1goals": "1",
      "team2goals": "1"
    },
    {
      "competition": "English Premier League",
      "year": 2014,
      "round": "",
      "team1": "Crystal Palace",
      "team2": "Chelsea",
      "team1goals": "1",
      "team2goals": "2"
    },
    {
      "competition": "English Premier League",
      "year": 2014,
      "round": "",
      "team1": "Manchester United",
      "team2": "Chelsea",
      "team1goals": "1",
      "team2goals": "1"
    },
    {
      "competition": "English Premier League",
      "year": 2014,
      "round": "",
      "team1": "Liverpool",
      "team2": "Chelsea",
      "team1goals": "1",
      "team2goals": "2"
    }
  ]
}